{
    "TotalRows": 10,
    "TotalPage": 1,
    "Page": 1,
    "DisplayRows": 10,
    "ResultList": [{
        "SubContractorID": "1",
        "WarehouseOwner": "3WO",
        "WarehouseName": "Warehouse A",
        "Address1": "16 Reynolds Road",
        "WarehouseManager":"Kai Hirschfeld",
        "Status": "Active"
    },
    {
        "SubContractorID": "2",
        "WarehouseOwner": "Present Company",
        "WarehouseName": "Warehouse B",
        "Address1": "43 Point Walter Road",
        "WarehouseManager":"Brayden Cummis",
        "Status": "Active"
    },
    {
        "SubContractorID": "3",
        "WarehouseOwner": "Britches of Georgetown",
        "WarehouseName": "Warehouse C",
        "Address1": "9 Shamrock Avenue",
        "WarehouseManager":"Zachary Pownall",
        "Status": "Active"
    }]
}
